<?xml version="1.0" encoding="UTF-8" standalone="no"?>
<!-- Created with Inkscape (http://www.inkscape.org/) -->

<svg
     xmlns:dc="http://purl.org/dc/elements/1.1/"
     xmlns:cc="http://creativecommons.org/ns#"
     xmlns:rdf="http://www.w3.org/1999/02/22-rdf-syntax-ns#"
     xmlns:svg="http://www.w3.org/2000/svg"
     xmlns="http://www.w3.org/2000/svg"
     xmlns:sodipodi="http://sodipodi.sourceforge.net/DTD/sodipodi-0.dtd"
     xmlns:inkscape="http://www.inkscape.org/namespaces/inkscape"
     width="90.360222"
     height="98.439308"
     viewBox="0 0 90.360221 98.439307"
     id="svg2"
     version="1.1"
     inkscape:version="0.91 r13725"
     sodipodi:docname="icone_processos.svg">
    <defs
         id="defs4" />
    <sodipodi:namedview
         id="base"
         pagecolor="#ffffff"
         bordercolor="#666666"
         borderopacity="1.0"
         inkscape:pageopacity="0.0"
         inkscape:pageshadow="2"
         inkscape:zoom="1.4"
         inkscape:cx="74.436467"
         inkscape:cy="22.069807"
         inkscape:document-units="px"
         inkscape:current-layer="layer1"
         showgrid="false"
         inkscape:window-width="1920"
         inkscape:window-height="1056"
         inkscape:window-x="0"
         inkscape:window-y="24"
         inkscape:window-maximized="1"
         fit-margin-top="0"
         fit-margin-left="0"
         fit-margin-right="0"
         fit-margin-bottom="0"
         showguides="false"
         units="px" />
    <metadata
         id="metadata7">
        <rdf:RDF>
            <cc:Work
                 rdf:about="">
                <dc:format>image/svg+xml</dc:format>
                <dc:type
                     rdf:resource="http://purl.org/dc/dcmitype/StillImage" />
                <dc:title></dc:title>
            </cc:Work>
        </rdf:RDF>
    </metadata>
    <g
         inkscape:label="Layer 1"
         inkscape:groupmode="layer"
         id="layer1"
         transform="translate(-147.67707,-513.14252)">
        <path
             style="fill:#1f2c54;fill-opacity:1"
             d="m 157.48206,513.14358 0,0.11955 -0.0981,0 0,16.37373 -9.68269,0 0,0.0415 -0.0134,0 0,81.81707 0.0115,0 -0.0223,0.0864 77.14928,0 13.21094,-65.40347 -3.43024,0 -3.54152,0 0,-5.49833 -6.40859,0 0,-11.00165 -5.61296,0 0,0.0154 -4.593,0 0,-16.51656 -0.24254,0 0,-0.0347 -56.7274,0 z m 5.51494,5.61292 45.84208,0 0,21.92355 -1.58638,0 0,5.49834 -43.47828,0 -0.77742,3.15944 0,-30.58133 z m 5.05316,7.08307 0,5.61294 36.14607,0 0,-5.61294 -36.14607,0 z m -14.74916,9.41027 4.08306,0 0,36.89359 -4.08306,16.5913 0,-53.48488 z m 61.15102,0.0581 4.593,0 0,5.37206 -4.593,0 0,-5.37206 z m -46.45834,1.30398 0,5.61294 36.14607,0 0,-5.61294 -36.14607,0 z"
             id="rect4412"
             inkscape:connector-curvature="0" />
    </g>
    <style
         id="style4388"
         type="text/css">
	.st0{fill:#252525;}
	.st1{fill:#252525;stroke:#252525;stroke-width:6.6;stroke-miterlimit:10;}
</style>
</svg>
