[
	{
		"categoria" : "mobilidade",
		"dias": [
			{ 
				"date": "2016-04-23",
				"pos":180,
				"neg":400
			},
			{
				"date": "2016-04-22",
				"pos":190,
				"neg":350
			},
			{
				"date": "2016-04-21",
				"pos":450, 
				"neg":100
			},
			{
				"date": "2016-04-20",
				"pos":590,
				"neg":200
			}
		]
	},
	{
		"categoria" : "seguranca",
		"dias": [
			{ 
				"date": "2016-04-23",
				"pos":120, 
				"neg":300
			},
			{
				"date": "2016-04-22",
				"pos":145,
				"neg":250
			},
			{
				"date": "2016-04-21",
				"pos":250, 
				"neg":125
			},
			{
				"date": "2016-04-20",
				"pos":350,
				"neg":120
			}
		]
	},
	{
		"categoria" : "entretenimento",
		"dias": [
			{ 
				"date": "2016-04-23", 
				"pos":10, 
				"neg":400
			},
			{
				"date": "2016-04-22",
				"pos":55,
				"neg":350
			},
			{
				"date": "2016-04-21",
				"pos":120, 
				"neg":305
			},
			{
				"date": "2016-04-20",
				"pos":300, 
				"neg":400
			}
		]
	},
	{
		"categoria" : "hospedagem",
		"dias": [
			{ 
				"date": "2016-04-23", 
				"pos":200, 
				"neg":390
			},
			{
				"date": "2016-04-22",
				"pos":100,
				"neg":500
			},
			{
				"date": "2016-04-21",
				"pos":90, 
				"neg":369
			},
			{
				"date": "2016-04-20",
				"pos":50, 
				"neg":20
			}
		]
	}
]